-86	76	2	0.000398107	0.000398107	0.000398107	0.000398107	0.000398107	0.000398107	0.000398107	0.000398107	0.000398107	0.000398107	0.000398107	0.000398107	0.000398107	0.000398107	0.000398107	0.000398107	0.000398107	0.000398107	0.000398107	0.000398107	0.000398107	0.000398107	0.000398107	0.000398107	0.000398107	0.000398107	0.000398107	0.000398107	0.000398107	0.000398107	0.000398107	
73.5	83.01	5	2.24196e-005	2.24196e-005	2.24196e-005	2.24196e-005	2.24196e-005	2.24196e-005	2.24196e-005	2.24196e-005	2.24196e-005	2.24196e-005	2.24196e-005	2.24196e-005	2.24196e-005	2.24196e-005	2.24196e-005	2.24196e-005	2.24196e-005	2.24196e-005	2.24196e-005	2.24196e-005	2.24196e-005	2.24196e-005	2.24196e-005	2.24196e-005	2.24196e-005	2.24196e-005	2.24196e-005	2.24196e-005	2.24196e-005	2.24196e-005	2.24196e-005	
54.5	83.01	5	2.24196e-005	2.24196e-005	2.24196e-005	2.24196e-005	2.24196e-005	2.24196e-005	2.24196e-005	2.24196e-005	2.24196e-005	2.24196e-005	2.24196e-005	2.24196e-005	2.24196e-005	2.24196e-005	2.24196e-005	2.24196e-005	2.24196e-005	2.24196e-005	2.24196e-005	2.24196e-005	2.24196e-005	2.24196e-005	2.24196e-005	2.24196e-005	2.24196e-005	2.24196e-005	2.24196e-005	2.24196e-005	2.24196e-005	2.24196e-005	2.24196e-005	
35.5	83.01	5	2.24196e-005	2.24196e-005	2.24196e-005	2.24196e-005	2.24196e-005	2.24196e-005	2.24196e-005	2.24196e-005	2.24196e-005	2.24196e-005	2.24196e-005	2.24196e-005	2.24196e-005	2.24196e-005	2.24196e-005	2.24196e-005	2.24196e-005	2.24196e-005	2.24196e-005	2.24196e-005	2.24196e-005	2.24196e-005	2.24196e-005	2.24196e-005	2.24196e-005	2.24196e-005	2.24196e-005	2.24196e-005	2.24196e-005	2.24196e-005	2.24196e-005	
82.99	112.25	5	1.90151e-005	1.90151e-005	1.90151e-005	1.90151e-005	1.90151e-005	1.90151e-005	1.90151e-005	1.90151e-005	1.90151e-005	1.90151e-005	1.90151e-005	1.90151e-005	1.90151e-005	1.90151e-005	1.90151e-005	1.90151e-005	1.90151e-005	1.90151e-005	1.90151e-005	1.90151e-005	1.90151e-005	1.90151e-005	1.90151e-005	1.90151e-005	1.90151e-005	1.90151e-005	1.90151e-005	1.90151e-005	1.90151e-005	1.90151e-005	1.90151e-005	
82.99	92.75	5	1.90151e-005	1.90151e-005	1.90151e-005	1.90151e-005	1.90151e-005	1.90151e-005	1.90151e-005	1.90151e-005	1.90151e-005	1.90151e-005	1.90151e-005	1.90151e-005	1.90151e-005	1.90151e-005	1.90151e-005	1.90151e-005	1.90151e-005	1.90151e-005	1.90151e-005	1.90151e-005	1.90151e-005	1.90151e-005	1.90151e-005	1.90151e-005	1.90151e-005	1.90151e-005	1.90151e-005	1.90151e-005	1.90151e-005	1.90151e-005	1.90151e-005	
150.5	122.01	5	9.01898e-006	9.01898e-006	9.01898e-006	9.01898e-006	9.01898e-006	9.01898e-006	9.01898e-006	9.01898e-006	9.01898e-006	9.01898e-006	9.01898e-006	9.01898e-006	9.01898e-006	9.01898e-006	9.01898e-006	9.01898e-006	9.01898e-006	9.01898e-006	9.01898e-006	9.01898e-006	9.01898e-006	9.01898e-006	9.01898e-006	9.01898e-006	9.01898e-006	9.01898e-006	9.01898e-006	9.01898e-006	9.01898e-006	9.01898e-006	9.01898e-006	
135.5	122.01	5	9.01898e-006	9.01898e-006	9.01898e-006	9.01898e-006	9.01898e-006	9.01898e-006	9.01898e-006	9.01898e-006	9.01898e-006	9.01898e-006	9.01898e-006	9.01898e-006	9.01898e-006	9.01898e-006	9.01898e-006	9.01898e-006	9.01898e-006	9.01898e-006	9.01898e-006	9.01898e-006	9.01898e-006	9.01898e-006	9.01898e-006	9.01898e-006	9.01898e-006	9.01898e-006	9.01898e-006	9.01898e-006	9.01898e-006	9.01898e-006	9.01898e-006	
120.5	122.01	5	9.01898e-006	9.01898e-006	9.01898e-006	9.01898e-006	9.01898e-006	9.01898e-006	9.01898e-006	9.01898e-006	9.01898e-006	9.01898e-006	9.01898e-006	9.01898e-006	9.01898e-006	9.01898e-006	9.01898e-006	9.01898e-006	9.01898e-006	9.01898e-006	9.01898e-006	9.01898e-006	9.01898e-006	9.01898e-006	9.01898e-006	9.01898e-006	9.01898e-006	9.01898e-006	9.01898e-006	9.01898e-006	9.01898e-006	9.01898e-006	9.01898e-006	
105.5	122.01	5	9.01898e-006	9.01898e-006	9.01898e-006	9.01898e-006	9.01898e-006	9.01898e-006	9.01898e-006	9.01898e-006	9.01898e-006	9.01898e-006	9.01898e-006	9.01898e-006	9.01898e-006	9.01898e-006	9.01898e-006	9.01898e-006	9.01898e-006	9.01898e-006	9.01898e-006	9.01898e-006	9.01898e-006	9.01898e-006	9.01898e-006	9.01898e-006	9.01898e-006	9.01898e-006	9.01898e-006	9.01898e-006	9.01898e-006	9.01898e-006	9.01898e-006	
90.5	122.01	5	9.01898e-006	9.01898e-006	9.01898e-006	9.01898e-006	9.01898e-006	9.01898e-006	9.01898e-006	9.01898e-006	9.01898e-006	9.01898e-006	9.01898e-006	9.01898e-006	9.01898e-006	9.01898e-006	9.01898e-006	9.01898e-006	9.01898e-006	9.01898e-006	9.01898e-006	9.01898e-006	9.01898e-006	9.01898e-006	9.01898e-006	9.01898e-006	9.01898e-006	9.01898e-006	9.01898e-006	9.01898e-006	9.01898e-006	9.01898e-006	9.01898e-006	
158.01	27.5833	5	9.77828e-006	9.77828e-006	9.77828e-006	9.77828e-006	9.77828e-006	9.77828e-006	9.77828e-006	9.77828e-006	9.77828e-006	9.77828e-006	9.77828e-006	9.77828e-006	9.77828e-006	9.77828e-006	9.77828e-006	9.77828e-006	9.77828e-006	9.77828e-006	9.77828e-006	9.77828e-006	9.77828e-006	9.77828e-006	9.77828e-006	9.77828e-006	9.77828e-006	9.77828e-006	9.77828e-006	9.77828e-006	9.77828e-006	9.77828e-006	9.77828e-006	
158.01	44.75	5	9.77828e-006	9.77828e-006	9.77828e-006	9.77828e-006	9.77828e-006	9.77828e-006	9.77828e-006	9.77828e-006	9.77828e-006	9.77828e-006	9.77828e-006	9.77828e-006	9.77828e-006	9.77828e-006	9.77828e-006	9.77828e-006	9.77828e-006	9.77828e-006	9.77828e-006	9.77828e-006	9.77828e-006	9.77828e-006	9.77828e-006	9.77828e-006	9.77828e-006	9.77828e-006	9.77828e-006	9.77828e-006	9.77828e-006	9.77828e-006	9.77828e-006	
158.01	61.9167	5	9.77828e-006	9.77828e-006	9.77828e-006	9.77828e-006	9.77828e-006	9.77828e-006	9.77828e-006	9.77828e-006	9.77828e-006	9.77828e-006	9.77828e-006	9.77828e-006	9.77828e-006	9.77828e-006	9.77828e-006	9.77828e-006	9.77828e-006	9.77828e-006	9.77828e-006	9.77828e-006	9.77828e-006	9.77828e-006	9.77828e-006	9.77828e-006	9.77828e-006	9.77828e-006	9.77828e-006	9.77828e-006	9.77828e-006	9.77828e-006	9.77828e-006	
158.01	79.0833	5	9.77828e-006	9.77828e-006	9.77828e-006	9.77828e-006	9.77828e-006	9.77828e-006	9.77828e-006	9.77828e-006	9.77828e-006	9.77828e-006	9.77828e-006	9.77828e-006	9.77828e-006	9.77828e-006	9.77828e-006	9.77828e-006	9.77828e-006	9.77828e-006	9.77828e-006	9.77828e-006	9.77828e-006	9.77828e-006	9.77828e-006	9.77828e-006	9.77828e-006	9.77828e-006	9.77828e-006	9.77828e-006	9.77828e-006	9.77828e-006	9.77828e-006	
158.01	96.25	5	9.77828e-006	9.77828e-006	9.77828e-006	9.77828e-006	9.77828e-006	9.77828e-006	9.77828e-006	9.77828e-006	9.77828e-006	9.77828e-006	9.77828e-006	9.77828e-006	9.77828e-006	9.77828e-006	9.77828e-006	9.77828e-006	9.77828e-006	9.77828e-006	9.77828e-006	9.77828e-006	9.77828e-006	9.77828e-006	9.77828e-006	9.77828e-006	9.77828e-006	9.77828e-006	9.77828e-006	9.77828e-006	9.77828e-006	9.77828e-006	9.77828e-006	
158.01	113.417	5	9.77828e-006	9.77828e-006	9.77828e-006	9.77828e-006	9.77828e-006	9.77828e-006	9.77828e-006	9.77828e-006	9.77828e-006	9.77828e-006	9.77828e-006	9.77828e-006	9.77828e-006	9.77828e-006	9.77828e-006	9.77828e-006	9.77828e-006	9.77828e-006	9.77828e-006	9.77828e-006	9.77828e-006	9.77828e-006	9.77828e-006	9.77828e-006	9.77828e-006	9.77828e-006	9.77828e-006	9.77828e-006	9.77828e-006	9.77828e-006	9.77828e-006	
33.3125	18.99	5	9.81373e-006	9.81373e-006	9.81373e-006	9.81373e-006	9.81373e-006	9.81373e-006	9.81373e-006	9.81373e-006	9.81373e-006	9.81373e-006	9.81373e-006	9.81373e-006	9.81373e-006	9.81373e-006	9.81373e-006	9.81373e-006	9.81373e-006	9.81373e-006	9.81373e-006	9.81373e-006	9.81373e-006	9.81373e-006	9.81373e-006	9.81373e-006	9.81373e-006	9.81373e-006	9.81373e-006	9.81373e-006	9.81373e-006	9.81373e-006	9.81373e-006	
49.9375	18.99	5	9.81373e-006	9.81373e-006	9.81373e-006	9.81373e-006	9.81373e-006	9.81373e-006	9.81373e-006	9.81373e-006	9.81373e-006	9.81373e-006	9.81373e-006	9.81373e-006	9.81373e-006	9.81373e-006	9.81373e-006	9.81373e-006	9.81373e-006	9.81373e-006	9.81373e-006	9.81373e-006	9.81373e-006	9.81373e-006	9.81373e-006	9.81373e-006	9.81373e-006	9.81373e-006	9.81373e-006	9.81373e-006	9.81373e-006	9.81373e-006	9.81373e-006	
66.5625	18.99	5	9.81373e-006	9.81373e-006	9.81373e-006	9.81373e-006	9.81373e-006	9.81373e-006	9.81373e-006	9.81373e-006	9.81373e-006	9.81373e-006	9.81373e-006	9.81373e-006	9.81373e-006	9.81373e-006	9.81373e-006	9.81373e-006	9.81373e-006	9.81373e-006	9.81373e-006	9.81373e-006	9.81373e-006	9.81373e-006	9.81373e-006	9.81373e-006	9.81373e-006	9.81373e-006	9.81373e-006	9.81373e-006	9.81373e-006	9.81373e-006	9.81373e-006	
83.1875	18.99	5	9.81373e-006	9.81373e-006	9.81373e-006	9.81373e-006	9.81373e-006	9.81373e-006	9.81373e-006	9.81373e-006	9.81373e-006	9.81373e-006	9.81373e-006	9.81373e-006	9.81373e-006	9.81373e-006	9.81373e-006	9.81373e-006	9.81373e-006	9.81373e-006	9.81373e-006	9.81373e-006	9.81373e-006	9.81373e-006	9.81373e-006	9.81373e-006	9.81373e-006	9.81373e-006	9.81373e-006	9.81373e-006	9.81373e-006	9.81373e-006	9.81373e-006	
99.8125	18.99	5	9.81373e-006	9.81373e-006	9.81373e-006	9.81373e-006	9.81373e-006	9.81373e-006	9.81373e-006	9.81373e-006	9.81373e-006	9.81373e-006	9.81373e-006	9.81373e-006	9.81373e-006	9.81373e-006	9.81373e-006	9.81373e-006	9.81373e-006	9.81373e-006	9.81373e-006	9.81373e-006	9.81373e-006	9.81373e-006	9.81373e-006	9.81373e-006	9.81373e-006	9.81373e-006	9.81373e-006	9.81373e-006	9.81373e-006	9.81373e-006	9.81373e-006	
116.438	18.99	5	9.81373e-006	9.81373e-006	9.81373e-006	9.81373e-006	9.81373e-006	9.81373e-006	9.81373e-006	9.81373e-006	9.81373e-006	9.81373e-006	9.81373e-006	9.81373e-006	9.81373e-006	9.81373e-006	9.81373e-006	9.81373e-006	9.81373e-006	9.81373e-006	9.81373e-006	9.81373e-006	9.81373e-006	9.81373e-006	9.81373e-006	9.81373e-006	9.81373e-006	9.81373e-006	9.81373e-006	9.81373e-006	9.81373e-006	9.81373e-006	9.81373e-006	
133.063	18.99	5	9.81373e-006	9.81373e-006	9.81373e-006	9.81373e-006	9.81373e-006	9.81373e-006	9.81373e-006	9.81373e-006	9.81373e-006	9.81373e-006	9.81373e-006	9.81373e-006	9.81373e-006	9.81373e-006	9.81373e-006	9.81373e-006	9.81373e-006	9.81373e-006	9.81373e-006	9.81373e-006	9.81373e-006	9.81373e-006	9.81373e-006	9.81373e-006	9.81373e-006	9.81373e-006	9.81373e-006	9.81373e-006	9.81373e-006	9.81373e-006	9.81373e-006	
149.688	18.99	5	9.81373e-006	9.81373e-006	9.81373e-006	9.81373e-006	9.81373e-006	9.81373e-006	9.81373e-006	9.81373e-006	9.81373e-006	9.81373e-006	9.81373e-006	9.81373e-006	9.81373e-006	9.81373e-006	9.81373e-006	9.81373e-006	9.81373e-006	9.81373e-006	9.81373e-006	9.81373e-006	9.81373e-006	9.81373e-006	9.81373e-006	9.81373e-006	9.81373e-006	9.81373e-006	9.81373e-006	9.81373e-006	9.81373e-006	9.81373e-006	9.81373e-006	
25.865	75.0002	5	9.54018e-006	9.54018e-006	9.54018e-006	9.54018e-006	9.54018e-006	9.54018e-006	9.54018e-006	9.54018e-006	9.54018e-006	9.54018e-006	9.54018e-006	9.54018e-006	9.54018e-006	9.54018e-006	9.54018e-006	9.54018e-006	9.54018e-006	9.54018e-006	9.54018e-006	9.54018e-006	9.54018e-006	9.54018e-006	9.54018e-006	9.54018e-006	9.54018e-006	9.54018e-006	9.54018e-006	9.54018e-006	9.54018e-006	9.54018e-006	9.54018e-006	
25.615	59.0002	5	9.54018e-006	9.54018e-006	9.54018e-006	9.54018e-006	9.54018e-006	9.54018e-006	9.54018e-006	9.54018e-006	9.54018e-006	9.54018e-006	9.54018e-006	9.54018e-006	9.54018e-006	9.54018e-006	9.54018e-006	9.54018e-006	9.54018e-006	9.54018e-006	9.54018e-006	9.54018e-006	9.54018e-006	9.54018e-006	9.54018e-006	9.54018e-006	9.54018e-006	9.54018e-006	9.54018e-006	9.54018e-006	9.54018e-006	9.54018e-006	9.54018e-006	
25.365	43.0001	5	9.54018e-006	9.54018e-006	9.54018e-006	9.54018e-006	9.54018e-006	9.54018e-006	9.54018e-006	9.54018e-006	9.54018e-006	9.54018e-006	9.54018e-006	9.54018e-006	9.54018e-006	9.54018e-006	9.54018e-006	9.54018e-006	9.54018e-006	9.54018e-006	9.54018e-006	9.54018e-006	9.54018e-006	9.54018e-006	9.54018e-006	9.54018e-006	9.54018e-006	9.54018e-006	9.54018e-006	9.54018e-006	9.54018e-006	9.54018e-006	9.54018e-006	
25.115	27.0001	5	9.54018e-006	9.54018e-006	9.54018e-006	9.54018e-006	9.54018e-006	9.54018e-006	9.54018e-006	9.54018e-006	9.54018e-006	9.54018e-006	9.54018e-006	9.54018e-006	9.54018e-006	9.54018e-006	9.54018e-006	9.54018e-006	9.54018e-006	9.54018e-006	9.54018e-006	9.54018e-006	9.54018e-006	9.54018e-006	9.54018e-006	9.54018e-006	9.54018e-006	9.54018e-006	9.54018e-006	9.54018e-006	9.54018e-006	9.54018e-006	9.54018e-006	
30.9349	71.4463	10.01	1.25986e-005	1.25986e-005	1.25986e-005	1.25986e-005	1.25986e-005	1.25986e-005	1.25986e-005	1.25986e-005	1.25986e-005	1.25986e-005	1.25986e-005	1.25986e-005	1.25986e-005	1.25986e-005	1.25986e-005	1.25986e-005	1.25986e-005	1.25986e-005	1.25986e-005	1.25986e-005	1.25986e-005	1.25986e-005	1.25986e-005	1.25986e-005	1.25986e-005	1.25986e-005	1.25986e-005	1.25986e-005	1.25986e-005	1.25986e-005	1.25986e-005	
30.7004	56.4388	10.01	1.25986e-005	1.25986e-005	1.25986e-005	1.25986e-005	1.25986e-005	1.25986e-005	1.25986e-005	1.25986e-005	1.25986e-005	1.25986e-005	1.25986e-005	1.25986e-005	1.25986e-005	1.25986e-005	1.25986e-005	1.25986e-005	1.25986e-005	1.25986e-005	1.25986e-005	1.25986e-005	1.25986e-005	1.25986e-005	1.25986e-005	1.25986e-005	1.25986e-005	1.25986e-005	1.25986e-005	1.25986e-005	1.25986e-005	1.25986e-005	1.25986e-005	
30.4659	41.4313	10.01	1.25986e-005	1.25986e-005	1.25986e-005	1.25986e-005	1.25986e-005	1.25986e-005	1.25986e-005	1.25986e-005	1.25986e-005	1.25986e-005	1.25986e-005	1.25986e-005	1.25986e-005	1.25986e-005	1.25986e-005	1.25986e-005	1.25986e-005	1.25986e-005	1.25986e-005	1.25986e-005	1.25986e-005	1.25986e-005	1.25986e-005	1.25986e-005	1.25986e-005	1.25986e-005	1.25986e-005	1.25986e-005	1.25986e-005	1.25986e-005	1.25986e-005	
30.2314	26.4238	10.01	1.25986e-005	1.25986e-005	1.25986e-005	1.25986e-005	1.25986e-005	1.25986e-005	1.25986e-005	1.25986e-005	1.25986e-005	1.25986e-005	1.25986e-005	1.25986e-005	1.25986e-005	1.25986e-005	1.25986e-005	1.25986e-005	1.25986e-005	1.25986e-005	1.25986e-005	1.25986e-005	1.25986e-005	1.25986e-005	1.25986e-005	1.25986e-005	1.25986e-005	1.25986e-005	1.25986e-005	1.25986e-005	1.25986e-005	1.25986e-005	1.25986e-005	
41.1631	71.2865	10.01	1.25986e-005	1.25986e-005	1.25986e-005	1.25986e-005	1.25986e-005	1.25986e-005	1.25986e-005	1.25986e-005	1.25986e-005	1.25986e-005	1.25986e-005	1.25986e-005	1.25986e-005	1.25986e-005	1.25986e-005	1.25986e-005	1.25986e-005	1.25986e-005	1.25986e-005	1.25986e-005	1.25986e-005	1.25986e-005	1.25986e-005	1.25986e-005	1.25986e-005	1.25986e-005	1.25986e-005	1.25986e-005	1.25986e-005	1.25986e-005	1.25986e-005	
40.9286	56.279	10.01	1.25986e-005	1.25986e-005	1.25986e-005	1.25986e-005	1.25986e-005	1.25986e-005	1.25986e-005	1.25986e-005	1.25986e-005	1.25986e-005	1.25986e-005	1.25986e-005	1.25986e-005	1.25986e-005	1.25986e-005	1.25986e-005	1.25986e-005	1.25986e-005	1.25986e-005	1.25986e-005	1.25986e-005	1.25986e-005	1.25986e-005	1.25986e-005	1.25986e-005	1.25986e-005	1.25986e-005	1.25986e-005	1.25986e-005	1.25986e-005	1.25986e-005	
40.6941	41.2715	10.01	1.25986e-005	1.25986e-005	1.25986e-005	1.25986e-005	1.25986e-005	1.25986e-005	1.25986e-005	1.25986e-005	1.25986e-005	1.25986e-005	1.25986e-005	1.25986e-005	1.25986e-005	1.25986e-005	1.25986e-005	1.25986e-005	1.25986e-005	1.25986e-005	1.25986e-005	1.25986e-005	1.25986e-005	1.25986e-005	1.25986e-005	1.25986e-005	1.25986e-005	1.25986e-005	1.25986e-005	1.25986e-005	1.25986e-005	1.25986e-005	1.25986e-005	
40.4597	26.264	10.01	1.25986e-005	1.25986e-005	1.25986e-005	1.25986e-005	1.25986e-005	1.25986e-005	1.25986e-005	1.25986e-005	1.25986e-005	1.25986e-005	1.25986e-005	1.25986e-005	1.25986e-005	1.25986e-005	1.25986e-005	1.25986e-005	1.25986e-005	1.25986e-005	1.25986e-005	1.25986e-005	1.25986e-005	1.25986e-005	1.25986e-005	1.25986e-005	1.25986e-005	1.25986e-005	1.25986e-005	1.25986e-005	1.25986e-005	1.25986e-005	1.25986e-005	
51.3914	71.1267	10.01	1.25986e-005	1.25986e-005	1.25986e-005	1.25986e-005	1.25986e-005	1.25986e-005	1.25986e-005	1.25986e-005	1.25986e-005	1.25986e-005	1.25986e-005	1.25986e-005	1.25986e-005	1.25986e-005	1.25986e-005	1.25986e-005	1.25986e-005	1.25986e-005	1.25986e-005	1.25986e-005	1.25986e-005	1.25986e-005	1.25986e-005	1.25986e-005	1.25986e-005	1.25986e-005	1.25986e-005	1.25986e-005	1.25986e-005	1.25986e-005	1.25986e-005	
51.1569	56.1192	10.01	1.25986e-005	1.25986e-005	1.25986e-005	1.25986e-005	1.25986e-005	1.25986e-005	1.25986e-005	1.25986e-005	1.25986e-005	1.25986e-005	1.25986e-005	1.25986e-005	1.25986e-005	1.25986e-005	1.25986e-005	1.25986e-005	1.25986e-005	1.25986e-005	1.25986e-005	1.25986e-005	1.25986e-005	1.25986e-005	1.25986e-005	1.25986e-005	1.25986e-005	1.25986e-005	1.25986e-005	1.25986e-005	1.25986e-005	1.25986e-005	1.25986e-005	
50.9224	41.1117	10.01	1.25986e-005	1.25986e-005	1.25986e-005	1.25986e-005	1.25986e-005	1.25986e-005	1.25986e-005	1.25986e-005	1.25986e-005	1.25986e-005	1.25986e-005	1.25986e-005	1.25986e-005	1.25986e-005	1.25986e-005	1.25986e-005	1.25986e-005	1.25986e-005	1.25986e-005	1.25986e-005	1.25986e-005	1.25986e-005	1.25986e-005	1.25986e-005	1.25986e-005	1.25986e-005	1.25986e-005	1.25986e-005	1.25986e-005	1.25986e-005	1.25986e-005	
50.6879	26.1042	10.01	1.25986e-005	1.25986e-005	1.25986e-005	1.25986e-005	1.25986e-005	1.25986e-005	1.25986e-005	1.25986e-005	1.25986e-005	1.25986e-005	1.25986e-005	1.25986e-005	1.25986e-005	1.25986e-005	1.25986e-005	1.25986e-005	1.25986e-005	1.25986e-005	1.25986e-005	1.25986e-005	1.25986e-005	1.25986e-005	1.25986e-005	1.25986e-005	1.25986e-005	1.25986e-005	1.25986e-005	1.25986e-005	1.25986e-005	1.25986e-005	1.25986e-005	
61.6197	70.9669	10.01	1.25986e-005	1.25986e-005	1.25986e-005	1.25986e-005	1.25986e-005	1.25986e-005	1.25986e-005	1.25986e-005	1.25986e-005	1.25986e-005	1.25986e-005	1.25986e-005	1.25986e-005	1.25986e-005	1.25986e-005	1.25986e-005	1.25986e-005	1.25986e-005	1.25986e-005	1.25986e-005	1.25986e-005	1.25986e-005	1.25986e-005	1.25986e-005	1.25986e-005	1.25986e-005	1.25986e-005	1.25986e-005	1.25986e-005	1.25986e-005	1.25986e-005	
61.3852	55.9594	10.01	1.25986e-005	1.25986e-005	1.25986e-005	1.25986e-005	1.25986e-005	1.25986e-005	1.25986e-005	1.25986e-005	1.25986e-005	1.25986e-005	1.25986e-005	1.25986e-005	1.25986e-005	1.25986e-005	1.25986e-005	1.25986e-005	1.25986e-005	1.25986e-005	1.25986e-005	1.25986e-005	1.25986e-005	1.25986e-005	1.25986e-005	1.25986e-005	1.25986e-005	1.25986e-005	1.25986e-005	1.25986e-005	1.25986e-005	1.25986e-005	1.25986e-005	
61.1507	40.9519	10.01	1.25986e-005	1.25986e-005	1.25986e-005	1.25986e-005	1.25986e-005	1.25986e-005	1.25986e-005	1.25986e-005	1.25986e-005	1.25986e-005	1.25986e-005	1.25986e-005	1.25986e-005	1.25986e-005	1.25986e-005	1.25986e-005	1.25986e-005	1.25986e-005	1.25986e-005	1.25986e-005	1.25986e-005	1.25986e-005	1.25986e-005	1.25986e-005	1.25986e-005	1.25986e-005	1.25986e-005	1.25986e-005	1.25986e-005	1.25986e-005	1.25986e-005	
60.9162	25.9444	10.01	1.25986e-005	1.25986e-005	1.25986e-005	1.25986e-005	1.25986e-005	1.25986e-005	1.25986e-005	1.25986e-005	1.25986e-005	1.25986e-005	1.25986e-005	1.25986e-005	1.25986e-005	1.25986e-005	1.25986e-005	1.25986e-005	1.25986e-005	1.25986e-005	1.25986e-005	1.25986e-005	1.25986e-005	1.25986e-005	1.25986e-005	1.25986e-005	1.25986e-005	1.25986e-005	1.25986e-005	1.25986e-005	1.25986e-005	1.25986e-005	1.25986e-005	
71.8479	70.8071	10.01	1.25986e-005	1.25986e-005	1.25986e-005	1.25986e-005	1.25986e-005	1.25986e-005	1.25986e-005	1.25986e-005	1.25986e-005	1.25986e-005	1.25986e-005	1.25986e-005	1.25986e-005	1.25986e-005	1.25986e-005	1.25986e-005	1.25986e-005	1.25986e-005	1.25986e-005	1.25986e-005	1.25986e-005	1.25986e-005	1.25986e-005	1.25986e-005	1.25986e-005	1.25986e-005	1.25986e-005	1.25986e-005	1.25986e-005	1.25986e-005	1.25986e-005	
71.6135	55.7996	10.01	1.25986e-005	1.25986e-005	1.25986e-005	1.25986e-005	1.25986e-005	1.25986e-005	1.25986e-005	1.25986e-005	1.25986e-005	1.25986e-005	1.25986e-005	1.25986e-005	1.25986e-005	1.25986e-005	1.25986e-005	1.25986e-005	1.25986e-005	1.25986e-005	1.25986e-005	1.25986e-005	1.25986e-005	1.25986e-005	1.25986e-005	1.25986e-005	1.25986e-005	1.25986e-005	1.25986e-005	1.25986e-005	1.25986e-005	1.25986e-005	1.25986e-005	
71.379	40.7921	10.01	1.25986e-005	1.25986e-005	1.25986e-005	1.25986e-005	1.25986e-005	1.25986e-005	1.25986e-005	1.25986e-005	1.25986e-005	1.25986e-005	1.25986e-005	1.25986e-005	1.25986e-005	1.25986e-005	1.25986e-005	1.25986e-005	1.25986e-005	1.25986e-005	1.25986e-005	1.25986e-005	1.25986e-005	1.25986e-005	1.25986e-005	1.25986e-005	1.25986e-005	1.25986e-005	1.25986e-005	1.25986e-005	1.25986e-005	1.25986e-005	1.25986e-005	
71.1445	25.7846	10.01	1.25986e-005	1.25986e-005	1.25986e-005	1.25986e-005	1.25986e-005	1.25986e-005	1.25986e-005	1.25986e-005	1.25986e-005	1.25986e-005	1.25986e-005	1.25986e-005	1.25986e-005	1.25986e-005	1.25986e-005	1.25986e-005	1.25986e-005	1.25986e-005	1.25986e-005	1.25986e-005	1.25986e-005	1.25986e-005	1.25986e-005	1.25986e-005	1.25986e-005	1.25986e-005	1.25986e-005	1.25986e-005	1.25986e-005	1.25986e-005	1.25986e-005	
82.0762	70.6472	10.01	1.25986e-005	1.25986e-005	1.25986e-005	1.25986e-005	1.25986e-005	1.25986e-005	1.25986e-005	1.25986e-005	1.25986e-005	1.25986e-005	1.25986e-005	1.25986e-005	1.25986e-005	1.25986e-005	1.25986e-005	1.25986e-005	1.25986e-005	1.25986e-005	1.25986e-005	1.25986e-005	1.25986e-005	1.25986e-005	1.25986e-005	1.25986e-005	1.25986e-005	1.25986e-005	1.25986e-005	1.25986e-005	1.25986e-005	1.25986e-005	1.25986e-005	
81.8417	55.6397	10.01	1.25986e-005	1.25986e-005	1.25986e-005	1.25986e-005	1.25986e-005	1.25986e-005	1.25986e-005	1.25986e-005	1.25986e-005	1.25986e-005	1.25986e-005	1.25986e-005	1.25986e-005	1.25986e-005	1.25986e-005	1.25986e-005	1.25986e-005	1.25986e-005	1.25986e-005	1.25986e-005	1.25986e-005	1.25986e-005	1.25986e-005	1.25986e-005	1.25986e-005	1.25986e-005	1.25986e-005	1.25986e-005	1.25986e-005	1.25986e-005	1.25986e-005	
81.6072	40.6323	10.01	1.25986e-005	1.25986e-005	1.25986e-005	1.25986e-005	1.25986e-005	1.25986e-005	1.25986e-005	1.25986e-005	1.25986e-005	1.25986e-005	1.25986e-005	1.25986e-005	1.25986e-005	1.25986e-005	1.25986e-005	1.25986e-005	1.25986e-005	1.25986e-005	1.25986e-005	1.25986e-005	1.25986e-005	1.25986e-005	1.25986e-005	1.25986e-005	1.25986e-005	1.25986e-005	1.25986e-005	1.25986e-005	1.25986e-005	1.25986e-005	1.25986e-005	
81.3727	25.6248	10.01	1.25986e-005	1.25986e-005	1.25986e-005	1.25986e-005	1.25986e-005	1.25986e-005	1.25986e-005	1.25986e-005	1.25986e-005	1.25986e-005	1.25986e-005	1.25986e-005	1.25986e-005	1.25986e-005	1.25986e-005	1.25986e-005	1.25986e-005	1.25986e-005	1.25986e-005	1.25986e-005	1.25986e-005	1.25986e-005	1.25986e-005	1.25986e-005	1.25986e-005	1.25986e-005	1.25986e-005	1.25986e-005	1.25986e-005	1.25986e-005	1.25986e-005	
93.008	115.51	10.01	1.25986e-005	1.25986e-005	1.25986e-005	1.25986e-005	1.25986e-005	1.25986e-005	1.25986e-005	1.25986e-005	1.25986e-005	1.25986e-005	1.25986e-005	1.25986e-005	1.25986e-005	1.25986e-005	1.25986e-005	1.25986e-005	1.25986e-005	1.25986e-005	1.25986e-005	1.25986e-005	1.25986e-005	1.25986e-005	1.25986e-005	1.25986e-005	1.25986e-005	1.25986e-005	1.25986e-005	1.25986e-005	1.25986e-005	1.25986e-005	1.25986e-005	
92.7735	100.502	10.01	1.25986e-005	1.25986e-005	1.25986e-005	1.25986e-005	1.25986e-005	1.25986e-005	1.25986e-005	1.25986e-005	1.25986e-005	1.25986e-005	1.25986e-005	1.25986e-005	1.25986e-005	1.25986e-005	1.25986e-005	1.25986e-005	1.25986e-005	1.25986e-005	1.25986e-005	1.25986e-005	1.25986e-005	1.25986e-005	1.25986e-005	1.25986e-005	1.25986e-005	1.25986e-005	1.25986e-005	1.25986e-005	1.25986e-005	1.25986e-005	1.25986e-005	
92.539	85.4949	10.01	1.25986e-005	1.25986e-005	1.25986e-005	1.25986e-005	1.25986e-005	1.25986e-005	1.25986e-005	1.25986e-005	1.25986e-005	1.25986e-005	1.25986e-005	1.25986e-005	1.25986e-005	1.25986e-005	1.25986e-005	1.25986e-005	1.25986e-005	1.25986e-005	1.25986e-005	1.25986e-005	1.25986e-005	1.25986e-005	1.25986e-005	1.25986e-005	1.25986e-005	1.25986e-005	1.25986e-005	1.25986e-005	1.25986e-005	1.25986e-005	1.25986e-005	
92.3045	70.4874	10.01	1.25986e-005	1.25986e-005	1.25986e-005	1.25986e-005	1.25986e-005	1.25986e-005	1.25986e-005	1.25986e-005	1.25986e-005	1.25986e-005	1.25986e-005	1.25986e-005	1.25986e-005	1.25986e-005	1.25986e-005	1.25986e-005	1.25986e-005	1.25986e-005	1.25986e-005	1.25986e-005	1.25986e-005	1.25986e-005	1.25986e-005	1.25986e-005	1.25986e-005	1.25986e-005	1.25986e-005	1.25986e-005	1.25986e-005	1.25986e-005	1.25986e-005	
92.07	55.4799	10.01	1.25986e-005	1.25986e-005	1.25986e-005	1.25986e-005	1.25986e-005	1.25986e-005	1.25986e-005	1.25986e-005	1.25986e-005	1.25986e-005	1.25986e-005	1.25986e-005	1.25986e-005	1.25986e-005	1.25986e-005	1.25986e-005	1.25986e-005	1.25986e-005	1.25986e-005	1.25986e-005	1.25986e-005	1.25986e-005	1.25986e-005	1.25986e-005	1.25986e-005	1.25986e-005	1.25986e-005	1.25986e-005	1.25986e-005	1.25986e-005	1.25986e-005	
91.8355	40.4724	10.01	1.25986e-005	1.25986e-005	1.25986e-005	1.25986e-005	1.25986e-005	1.25986e-005	1.25986e-005	1.25986e-005	1.25986e-005	1.25986e-005	1.25986e-005	1.25986e-005	1.25986e-005	1.25986e-005	1.25986e-005	1.25986e-005	1.25986e-005	1.25986e-005	1.25986e-005	1.25986e-005	1.25986e-005	1.25986e-005	1.25986e-005	1.25986e-005	1.25986e-005	1.25986e-005	1.25986e-005	1.25986e-005	1.25986e-005	1.25986e-005	1.25986e-005	
91.601	25.4649	10.01	1.25986e-005	1.25986e-005	1.25986e-005	1.25986e-005	1.25986e-005	1.25986e-005	1.25986e-005	1.25986e-005	1.25986e-005	1.25986e-005	1.25986e-005	1.25986e-005	1.25986e-005	1.25986e-005	1.25986e-005	1.25986e-005	1.25986e-005	1.25986e-005	1.25986e-005	1.25986e-005	1.25986e-005	1.25986e-005	1.25986e-005	1.25986e-005	1.25986e-005	1.25986e-005	1.25986e-005	1.25986e-005	1.25986e-005	1.25986e-005	1.25986e-005	
103.236	115.35	10.01	1.25986e-005	1.25986e-005	1.25986e-005	1.25986e-005	1.25986e-005	1.25986e-005	1.25986e-005	1.25986e-005	1.25986e-005	1.25986e-005	1.25986e-005	1.25986e-005	1.25986e-005	1.25986e-005	1.25986e-005	1.25986e-005	1.25986e-005	1.25986e-005	1.25986e-005	1.25986e-005	1.25986e-005	1.25986e-005	1.25986e-005	1.25986e-005	1.25986e-005	1.25986e-005	1.25986e-005	1.25986e-005	1.25986e-005	1.25986e-005	1.25986e-005	
103.002	100.343	10.01	1.25986e-005	1.25986e-005	1.25986e-005	1.25986e-005	1.25986e-005	1.25986e-005	1.25986e-005	1.25986e-005	1.25986e-005	1.25986e-005	1.25986e-005	1.25986e-005	1.25986e-005	1.25986e-005	1.25986e-005	1.25986e-005	1.25986e-005	1.25986e-005	1.25986e-005	1.25986e-005	1.25986e-005	1.25986e-005	1.25986e-005	1.25986e-005	1.25986e-005	1.25986e-005	1.25986e-005	1.25986e-005	1.25986e-005	1.25986e-005	1.25986e-005	
102.767	85.3351	10.01	1.25986e-005	1.25986e-005	1.25986e-005	1.25986e-005	1.25986e-005	1.25986e-005	1.25986e-005	1.25986e-005	1.25986e-005	1.25986e-005	1.25986e-005	1.25986e-005	1.25986e-005	1.25986e-005	1.25986e-005	1.25986e-005	1.25986e-005	1.25986e-005	1.25986e-005	1.25986e-005	1.25986e-005	1.25986e-005	1.25986e-005	1.25986e-005	1.25986e-005	1.25986e-005	1.25986e-005	1.25986e-005	1.25986e-005	1.25986e-005	1.25986e-005	
102.533	70.3276	10.01	1.25986e-005	1.25986e-005	1.25986e-005	1.25986e-005	1.25986e-005	1.25986e-005	1.25986e-005	1.25986e-005	1.25986e-005	1.25986e-005	1.25986e-005	1.25986e-005	1.25986e-005	1.25986e-005	1.25986e-005	1.25986e-005	1.25986e-005	1.25986e-005	1.25986e-005	1.25986e-005	1.25986e-005	1.25986e-005	1.25986e-005	1.25986e-005	1.25986e-005	1.25986e-005	1.25986e-005	1.25986e-005	1.25986e-005	1.25986e-005	1.25986e-005	
102.298	55.3201	10.01	1.25986e-005	1.25986e-005	1.25986e-005	1.25986e-005	1.25986e-005	1.25986e-005	1.25986e-005	1.25986e-005	1.25986e-005	1.25986e-005	1.25986e-005	1.25986e-005	1.25986e-005	1.25986e-005	1.25986e-005	1.25986e-005	1.25986e-005	1.25986e-005	1.25986e-005	1.25986e-005	1.25986e-005	1.25986e-005	1.25986e-005	1.25986e-005	1.25986e-005	1.25986e-005	1.25986e-005	1.25986e-005	1.25986e-005	1.25986e-005	1.25986e-005	
102.064	40.3126	10.01	1.25986e-005	1.25986e-005	1.25986e-005	1.25986e-005	1.25986e-005	1.25986e-005	1.25986e-005	1.25986e-005	1.25986e-005	1.25986e-005	1.25986e-005	1.25986e-005	1.25986e-005	1.25986e-005	1.25986e-005	1.25986e-005	1.25986e-005	1.25986e-005	1.25986e-005	1.25986e-005	1.25986e-005	1.25986e-005	1.25986e-005	1.25986e-005	1.25986e-005	1.25986e-005	1.25986e-005	1.25986e-005	1.25986e-005	1.25986e-005	1.25986e-005	
101.829	25.3051	10.01	1.25986e-005	1.25986e-005	1.25986e-005	1.25986e-005	1.25986e-005	1.25986e-005	1.25986e-005	1.25986e-005	1.25986e-005	1.25986e-005	1.25986e-005	1.25986e-005	1.25986e-005	1.25986e-005	1.25986e-005	1.25986e-005	1.25986e-005	1.25986e-005	1.25986e-005	1.25986e-005	1.25986e-005	1.25986e-005	1.25986e-005	1.25986e-005	1.25986e-005	1.25986e-005	1.25986e-005	1.25986e-005	1.25986e-005	1.25986e-005	1.25986e-005	
113.465	115.19	10.01	1.25986e-005	1.25986e-005	1.25986e-005	1.25986e-005	1.25986e-005	1.25986e-005	1.25986e-005	1.25986e-005	1.25986e-005	1.25986e-005	1.25986e-005	1.25986e-005	1.25986e-005	1.25986e-005	1.25986e-005	1.25986e-005	1.25986e-005	1.25986e-005	1.25986e-005	1.25986e-005	1.25986e-005	1.25986e-005	1.25986e-005	1.25986e-005	1.25986e-005	1.25986e-005	1.25986e-005	1.25986e-005	1.25986e-005	1.25986e-005	1.25986e-005	
113.23	100.183	10.01	1.25986e-005	1.25986e-005	1.25986e-005	1.25986e-005	1.25986e-005	1.25986e-005	1.25986e-005	1.25986e-005	1.25986e-005	1.25986e-005	1.25986e-005	1.25986e-005	1.25986e-005	1.25986e-005	1.25986e-005	1.25986e-005	1.25986e-005	1.25986e-005	1.25986e-005	1.25986e-005	1.25986e-005	1.25986e-005	1.25986e-005	1.25986e-005	1.25986e-005	1.25986e-005	1.25986e-005	1.25986e-005	1.25986e-005	1.25986e-005	1.25986e-005	
112.996	85.1753	10.01	1.25986e-005	1.25986e-005	1.25986e-005	1.25986e-005	1.25986e-005	1.25986e-005	1.25986e-005	1.25986e-005	1.25986e-005	1.25986e-005	1.25986e-005	1.25986e-005	1.25986e-005	1.25986e-005	1.25986e-005	1.25986e-005	1.25986e-005	1.25986e-005	1.25986e-005	1.25986e-005	1.25986e-005	1.25986e-005	1.25986e-005	1.25986e-005	1.25986e-005	1.25986e-005	1.25986e-005	1.25986e-005	1.25986e-005	1.25986e-005	1.25986e-005	
112.761	70.1678	10.01	1.25986e-005	1.25986e-005	1.25986e-005	1.25986e-005	1.25986e-005	1.25986e-005	1.25986e-005	1.25986e-005	1.25986e-005	1.25986e-005	1.25986e-005	1.25986e-005	1.25986e-005	1.25986e-005	1.25986e-005	1.25986e-005	1.25986e-005	1.25986e-005	1.25986e-005	1.25986e-005	1.25986e-005	1.25986e-005	1.25986e-005	1.25986e-005	1.25986e-005	1.25986e-005	1.25986e-005	1.25986e-005	1.25986e-005	1.25986e-005	1.25986e-005	
112.527	55.1603	10.01	1.25986e-005	1.25986e-005	1.25986e-005	1.25986e-005	1.25986e-005	1.25986e-005	1.25986e-005	1.25986e-005	1.25986e-005	1.25986e-005	1.25986e-005	1.25986e-005	1.25986e-005	1.25986e-005	1.25986e-005	1.25986e-005	1.25986e-005	1.25986e-005	1.25986e-005	1.25986e-005	1.25986e-005	1.25986e-005	1.25986e-005	1.25986e-005	1.25986e-005	1.25986e-005	1.25986e-005	1.25986e-005	1.25986e-005	1.25986e-005	1.25986e-005	
112.292	40.1528	10.01	1.25986e-005	1.25986e-005	1.25986e-005	1.25986e-005	1.25986e-005	1.25986e-005	1.25986e-005	1.25986e-005	1.25986e-005	1.25986e-005	1.25986e-005	1.25986e-005	1.25986e-005	1.25986e-005	1.25986e-005	1.25986e-005	1.25986e-005	1.25986e-005	1.25986e-005	1.25986e-005	1.25986e-005	1.25986e-005	1.25986e-005	1.25986e-005	1.25986e-005	1.25986e-005	1.25986e-005	1.25986e-005	1.25986e-005	1.25986e-005	1.25986e-005	
112.058	25.1453	10.01	1.25986e-005	1.25986e-005	1.25986e-005	1.25986e-005	1.25986e-005	1.25986e-005	1.25986e-005	1.25986e-005	1.25986e-005	1.25986e-005	1.25986e-005	1.25986e-005	1.25986e-005	1.25986e-005	1.25986e-005	1.25986e-005	1.25986e-005	1.25986e-005	1.25986e-005	1.25986e-005	1.25986e-005	1.25986e-005	1.25986e-005	1.25986e-005	1.25986e-005	1.25986e-005	1.25986e-005	1.25986e-005	1.25986e-005	1.25986e-005	1.25986e-005	
123.693	115.03	10.01	1.25986e-005	1.25986e-005	1.25986e-005	1.25986e-005	1.25986e-005	1.25986e-005	1.25986e-005	1.25986e-005	1.25986e-005	1.25986e-005	1.25986e-005	1.25986e-005	1.25986e-005	1.25986e-005	1.25986e-005	1.25986e-005	1.25986e-005	1.25986e-005	1.25986e-005	1.25986e-005	1.25986e-005	1.25986e-005	1.25986e-005	1.25986e-005	1.25986e-005	1.25986e-005	1.25986e-005	1.25986e-005	1.25986e-005	1.25986e-005	1.25986e-005	
123.458	100.023	10.01	1.25986e-005	1.25986e-005	1.25986e-005	1.25986e-005	1.25986e-005	1.25986e-005	1.25986e-005	1.25986e-005	1.25986e-005	1.25986e-005	1.25986e-005	1.25986e-005	1.25986e-005	1.25986e-005	1.25986e-005	1.25986e-005	1.25986e-005	1.25986e-005	1.25986e-005	1.25986e-005	1.25986e-005	1.25986e-005	1.25986e-005	1.25986e-005	1.25986e-005	1.25986e-005	1.25986e-005	1.25986e-005	1.25986e-005	1.25986e-005	1.25986e-005	
123.224	85.0155	10.01	1.25986e-005	1.25986e-005	1.25986e-005	1.25986e-005	1.25986e-005	1.25986e-005	1.25986e-005	1.25986e-005	1.25986e-005	1.25986e-005	1.25986e-005	1.25986e-005	1.25986e-005	1.25986e-005	1.25986e-005	1.25986e-005	1.25986e-005	1.25986e-005	1.25986e-005	1.25986e-005	1.25986e-005	1.25986e-005	1.25986e-005	1.25986e-005	1.25986e-005	1.25986e-005	1.25986e-005	1.25986e-005	1.25986e-005	1.25986e-005	1.25986e-005	
122.989	70.008	10.01	1.25986e-005	1.25986e-005	1.25986e-005	1.25986e-005	1.25986e-005	1.25986e-005	1.25986e-005	1.25986e-005	1.25986e-005	1.25986e-005	1.25986e-005	1.25986e-005	1.25986e-005	1.25986e-005	1.25986e-005	1.25986e-005	1.25986e-005	1.25986e-005	1.25986e-005	1.25986e-005	1.25986e-005	1.25986e-005	1.25986e-005	1.25986e-005	1.25986e-005	1.25986e-005	1.25986e-005	1.25986e-005	1.25986e-005	1.25986e-005	1.25986e-005	
122.755	55.0005	10.01	1.25986e-005	1.25986e-005	1.25986e-005	1.25986e-005	1.25986e-005	1.25986e-005	1.25986e-005	1.25986e-005	1.25986e-005	1.25986e-005	1.25986e-005	1.25986e-005	1.25986e-005	1.25986e-005	1.25986e-005	1.25986e-005	1.25986e-005	1.25986e-005	1.25986e-005	1.25986e-005	1.25986e-005	1.25986e-005	1.25986e-005	1.25986e-005	1.25986e-005	1.25986e-005	1.25986e-005	1.25986e-005	1.25986e-005	1.25986e-005	1.25986e-005	
122.52	39.993	10.01	1.25986e-005	1.25986e-005	1.25986e-005	1.25986e-005	1.25986e-005	1.25986e-005	1.25986e-005	1.25986e-005	1.25986e-005	1.25986e-005	1.25986e-005	1.25986e-005	1.25986e-005	1.25986e-005	1.25986e-005	1.25986e-005	1.25986e-005	1.25986e-005	1.25986e-005	1.25986e-005	1.25986e-005	1.25986e-005	1.25986e-005	1.25986e-005	1.25986e-005	1.25986e-005	1.25986e-005	1.25986e-005	1.25986e-005	1.25986e-005	1.25986e-005	
122.286	24.9855	10.01	1.25986e-005	1.25986e-005	1.25986e-005	1.25986e-005	1.25986e-005	1.25986e-005	1.25986e-005	1.25986e-005	1.25986e-005	1.25986e-005	1.25986e-005	1.25986e-005	1.25986e-005	1.25986e-005	1.25986e-005	1.25986e-005	1.25986e-005	1.25986e-005	1.25986e-005	1.25986e-005	1.25986e-005	1.25986e-005	1.25986e-005	1.25986e-005	1.25986e-005	1.25986e-005	1.25986e-005	1.25986e-005	1.25986e-005	1.25986e-005	1.25986e-005	
133.921	114.871	10.01	1.25986e-005	1.25986e-005	1.25986e-005	1.25986e-005	1.25986e-005	1.25986e-005	1.25986e-005	1.25986e-005	1.25986e-005	1.25986e-005	1.25986e-005	1.25986e-005	1.25986e-005	1.25986e-005	1.25986e-005	1.25986e-005	1.25986e-005	1.25986e-005	1.25986e-005	1.25986e-005	1.25986e-005	1.25986e-005	1.25986e-005	1.25986e-005	1.25986e-005	1.25986e-005	1.25986e-005	1.25986e-005	1.25986e-005	1.25986e-005	1.25986e-005	
133.687	99.8632	10.01	1.25986e-005	1.25986e-005	1.25986e-005	1.25986e-005	1.25986e-005	1.25986e-005	1.25986e-005	1.25986e-005	1.25986e-005	1.25986e-005	1.25986e-005	1.25986e-005	1.25986e-005	1.25986e-005	1.25986e-005	1.25986e-005	1.25986e-005	1.25986e-005	1.25986e-005	1.25986e-005	1.25986e-005	1.25986e-005	1.25986e-005	1.25986e-005	1.25986e-005	1.25986e-005	1.25986e-005	1.25986e-005	1.25986e-005	1.25986e-005	1.25986e-005	
133.452	84.8557	10.01	1.25986e-005	1.25986e-005	1.25986e-005	1.25986e-005	1.25986e-005	1.25986e-005	1.25986e-005	1.25986e-005	1.25986e-005	1.25986e-005	1.25986e-005	1.25986e-005	1.25986e-005	1.25986e-005	1.25986e-005	1.25986e-005	1.25986e-005	1.25986e-005	1.25986e-005	1.25986e-005	1.25986e-005	1.25986e-005	1.25986e-005	1.25986e-005	1.25986e-005	1.25986e-005	1.25986e-005	1.25986e-005	1.25986e-005	1.25986e-005	1.25986e-005	
133.218	69.8482	10.01	1.25986e-005	1.25986e-005	1.25986e-005	1.25986e-005	1.25986e-005	1.25986e-005	1.25986e-005	1.25986e-005	1.25986e-005	1.25986e-005	1.25986e-005	1.25986e-005	1.25986e-005	1.25986e-005	1.25986e-005	1.25986e-005	1.25986e-005	1.25986e-005	1.25986e-005	1.25986e-005	1.25986e-005	1.25986e-005	1.25986e-005	1.25986e-005	1.25986e-005	1.25986e-005	1.25986e-005	1.25986e-005	1.25986e-005	1.25986e-005	1.25986e-005	
132.983	54.8407	10.01	1.25986e-005	1.25986e-005	1.25986e-005	1.25986e-005	1.25986e-005	1.25986e-005	1.25986e-005	1.25986e-005	1.25986e-005	1.25986e-005	1.25986e-005	1.25986e-005	1.25986e-005	1.25986e-005	1.25986e-005	1.25986e-005	1.25986e-005	1.25986e-005	1.25986e-005	1.25986e-005	1.25986e-005	1.25986e-005	1.25986e-005	1.25986e-005	1.25986e-005	1.25986e-005	1.25986e-005	1.25986e-005	1.25986e-005	1.25986e-005	1.25986e-005	
132.749	39.8332	10.01	1.25986e-005	1.25986e-005	1.25986e-005	1.25986e-005	1.25986e-005	1.25986e-005	1.25986e-005	1.25986e-005	1.25986e-005	1.25986e-005	1.25986e-005	1.25986e-005	1.25986e-005	1.25986e-005	1.25986e-005	1.25986e-005	1.25986e-005	1.25986e-005	1.25986e-005	1.25986e-005	1.25986e-005	1.25986e-005	1.25986e-005	1.25986e-005	1.25986e-005	1.25986e-005	1.25986e-005	1.25986e-005	1.25986e-005	1.25986e-005	1.25986e-005	
132.514	24.8257	10.01	1.25986e-005	1.25986e-005	1.25986e-005	1.25986e-005	1.25986e-005	1.25986e-005	1.25986e-005	1.25986e-005	1.25986e-005	1.25986e-005	1.25986e-005	1.25986e-005	1.25986e-005	1.25986e-005	1.25986e-005	1.25986e-005	1.25986e-005	1.25986e-005	1.25986e-005	1.25986e-005	1.25986e-005	1.25986e-005	1.25986e-005	1.25986e-005	1.25986e-005	1.25986e-005	1.25986e-005	1.25986e-005	1.25986e-005	1.25986e-005	1.25986e-005	
144.149	114.711	10.01	1.25986e-005	1.25986e-005	1.25986e-005	1.25986e-005	1.25986e-005	1.25986e-005	1.25986e-005	1.25986e-005	1.25986e-005	1.25986e-005	1.25986e-005	1.25986e-005	1.25986e-005	1.25986e-005	1.25986e-005	1.25986e-005	1.25986e-005	1.25986e-005	1.25986e-005	1.25986e-005	1.25986e-005	1.25986e-005	1.25986e-005	1.25986e-005	1.25986e-005	1.25986e-005	1.25986e-005	1.25986e-005	1.25986e-005	1.25986e-005	1.25986e-005	
143.915	99.7033	10.01	1.25986e-005	1.25986e-005	1.25986e-005	1.25986e-005	1.25986e-005	1.25986e-005	1.25986e-005	1.25986e-005	1.25986e-005	1.25986e-005	1.25986e-005	1.25986e-005	1.25986e-005	1.25986e-005	1.25986e-005	1.25986e-005	1.25986e-005	1.25986e-005	1.25986e-005	1.25986e-005	1.25986e-005	1.25986e-005	1.25986e-005	1.25986e-005	1.25986e-005	1.25986e-005	1.25986e-005	1.25986e-005	1.25986e-005	1.25986e-005	1.25986e-005	
143.68	84.6958	10.01	1.25986e-005	1.25986e-005	1.25986e-005	1.25986e-005	1.25986e-005	1.25986e-005	1.25986e-005	1.25986e-005	1.25986e-005	1.25986e-005	1.25986e-005	1.25986e-005	1.25986e-005	1.25986e-005	1.25986e-005	1.25986e-005	1.25986e-005	1.25986e-005	1.25986e-005	1.25986e-005	1.25986e-005	1.25986e-005	1.25986e-005	1.25986e-005	1.25986e-005	1.25986e-005	1.25986e-005	1.25986e-005	1.25986e-005	1.25986e-005	1.25986e-005	
143.446	69.6883	10.01	1.25986e-005	1.25986e-005	1.25986e-005	1.25986e-005	1.25986e-005	1.25986e-005	1.25986e-005	1.25986e-005	1.25986e-005	1.25986e-005	1.25986e-005	1.25986e-005	1.25986e-005	1.25986e-005	1.25986e-005	1.25986e-005	1.25986e-005	1.25986e-005	1.25986e-005	1.25986e-005	1.25986e-005	1.25986e-005	1.25986e-005	1.25986e-005	1.25986e-005	1.25986e-005	1.25986e-005	1.25986e-005	1.25986e-005	1.25986e-005	1.25986e-005	
143.211	54.6808	10.01	1.25986e-005	1.25986e-005	1.25986e-005	1.25986e-005	1.25986e-005	1.25986e-005	1.25986e-005	1.25986e-005	1.25986e-005	1.25986e-005	1.25986e-005	1.25986e-005	1.25986e-005	1.25986e-005	1.25986e-005	1.25986e-005	1.25986e-005	1.25986e-005	1.25986e-005	1.25986e-005	1.25986e-005	1.25986e-005	1.25986e-005	1.25986e-005	1.25986e-005	1.25986e-005	1.25986e-005	1.25986e-005	1.25986e-005	1.25986e-005	1.25986e-005	
142.977	39.6734	10.01	1.25986e-005	1.25986e-005	1.25986e-005	1.25986e-005	1.25986e-005	1.25986e-005	1.25986e-005	1.25986e-005	1.25986e-005	1.25986e-005	1.25986e-005	1.25986e-005	1.25986e-005	1.25986e-005	1.25986e-005	1.25986e-005	1.25986e-005	1.25986e-005	1.25986e-005	1.25986e-005	1.25986e-005	1.25986e-005	1.25986e-005	1.25986e-005	1.25986e-005	1.25986e-005	1.25986e-005	1.25986e-005	1.25986e-005	1.25986e-005	1.25986e-005	
142.742	24.6659	10.01	1.25986e-005	1.25986e-005	1.25986e-005	1.25986e-005	1.25986e-005	1.25986e-005	1.25986e-005	1.25986e-005	1.25986e-005	1.25986e-005	1.25986e-005	1.25986e-005	1.25986e-005	1.25986e-005	1.25986e-005	1.25986e-005	1.25986e-005	1.25986e-005	1.25986e-005	1.25986e-005	1.25986e-005	1.25986e-005	1.25986e-005	1.25986e-005	1.25986e-005	1.25986e-005	1.25986e-005	1.25986e-005	1.25986e-005	1.25986e-005	1.25986e-005	
154.378	114.551	10.01	1.25986e-005	1.25986e-005	1.25986e-005	1.25986e-005	1.25986e-005	1.25986e-005	1.25986e-005	1.25986e-005	1.25986e-005	1.25986e-005	1.25986e-005	1.25986e-005	1.25986e-005	1.25986e-005	1.25986e-005	1.25986e-005	1.25986e-005	1.25986e-005	1.25986e-005	1.25986e-005	1.25986e-005	1.25986e-005	1.25986e-005	1.25986e-005	1.25986e-005	1.25986e-005	1.25986e-005	1.25986e-005	1.25986e-005	1.25986e-005	1.25986e-005	
154.143	99.5435	10.01	1.25986e-005	1.25986e-005	1.25986e-005	1.25986e-005	1.25986e-005	1.25986e-005	1.25986e-005	1.25986e-005	1.25986e-005	1.25986e-005	1.25986e-005	1.25986e-005	1.25986e-005	1.25986e-005	1.25986e-005	1.25986e-005	1.25986e-005	1.25986e-005	1.25986e-005	1.25986e-005	1.25986e-005	1.25986e-005	1.25986e-005	1.25986e-005	1.25986e-005	1.25986e-005	1.25986e-005	1.25986e-005	1.25986e-005	1.25986e-005	1.25986e-005	
153.909	84.536	10.01	1.25986e-005	1.25986e-005	1.25986e-005	1.25986e-005	1.25986e-005	1.25986e-005	1.25986e-005	1.25986e-005	1.25986e-005	1.25986e-005	1.25986e-005	1.25986e-005	1.25986e-005	1.25986e-005	1.25986e-005	1.25986e-005	1.25986e-005	1.25986e-005	1.25986e-005	1.25986e-005	1.25986e-005	1.25986e-005	1.25986e-005	1.25986e-005	1.25986e-005	1.25986e-005	1.25986e-005	1.25986e-005	1.25986e-005	1.25986e-005	1.25986e-005	
153.674	69.5285	10.01	1.25986e-005	1.25986e-005	1.25986e-005	1.25986e-005	1.25986e-005	1.25986e-005	1.25986e-005	1.25986e-005	1.25986e-005	1.25986e-005	1.25986e-005	1.25986e-005	1.25986e-005	1.25986e-005	1.25986e-005	1.25986e-005	1.25986e-005	1.25986e-005	1.25986e-005	1.25986e-005	1.25986e-005	1.25986e-005	1.25986e-005	1.25986e-005	1.25986e-005	1.25986e-005	1.25986e-005	1.25986e-005	1.25986e-005	1.25986e-005	1.25986e-005	
153.44	54.521	10.01	1.25986e-005	1.25986e-005	1.25986e-005	1.25986e-005	1.25986e-005	1.25986e-005	1.25986e-005	1.25986e-005	1.25986e-005	1.25986e-005	1.25986e-005	1.25986e-005	1.25986e-005	1.25986e-005	1.25986e-005	1.25986e-005	1.25986e-005	1.25986e-005	1.25986e-005	1.25986e-005	1.25986e-005	1.25986e-005	1.25986e-005	1.25986e-005	1.25986e-005	1.25986e-005	1.25986e-005	1.25986e-005	1.25986e-005	1.25986e-005	1.25986e-005	
153.205	39.5135	10.01	1.25986e-005	1.25986e-005	1.25986e-005	1.25986e-005	1.25986e-005	1.25986e-005	1.25986e-005	1.25986e-005	1.25986e-005	1.25986e-005	1.25986e-005	1.25986e-005	1.25986e-005	1.25986e-005	1.25986e-005	1.25986e-005	1.25986e-005	1.25986e-005	1.25986e-005	1.25986e-005	1.25986e-005	1.25986e-005	1.25986e-005	1.25986e-005	1.25986e-005	1.25986e-005	1.25986e-005	1.25986e-005	1.25986e-005	1.25986e-005	1.25986e-005	
152.971	24.506	10.01	1.25986e-005	1.25986e-005	1.25986e-005	1.25986e-005	1.25986e-005	1.25986e-005	1.25986e-005	1.25986e-005	1.25986e-005	1.25986e-005	1.25986e-005	1.25986e-005	1.25986e-005	1.25986e-005	1.25986e-005	1.25986e-005	1.25986e-005	1.25986e-005	1.25986e-005	1.25986e-005	1.25986e-005	1.25986e-005	1.25986e-005	1.25986e-005	1.25986e-005	1.25986e-005	1.25986e-005	1.25986e-005	1.25986e-005	1.25986e-005	1.25986e-005	
